vti_encoding:SR|utf8-nl
vti_timelastmodified:TR|06 Dec 2005 17:12:47 -0000
vti_extenderversion:SR|6.0.2.5516
vti_nosourcecontrol:SR|True
vti_author:SR|TCS\\jBowen
vti_modifiedby:SR|TCS\\jBowen
vti_nexttolasttimemodified:TR|06 Dec 2005 17:12:47 -0000
vti_timecreated:TR|06 Dec 2005 17:12:47 -0000
vti_cacheddtm:TX|06 Dec 2005 17:12:47 -0000
vti_filesize:IR|0
vti_backlinkinfo:VX|
